{
    "key": "group_58c42f06c5f43",
    "title": "Taxonomy image",
    "fields": [
        {
            "return_format": "id",
            "preview_size": "thumbnail",
            "library": "all",
            "min_width": "",
            "min_height": "",
            "min_size": "",
            "max_width": "",
            "max_height": "",
            "max_size": "",
            "mime_types": "",
            "key": "field_58c42f1c54b7e",
            "label": "Image",
            "name": "taxo_image",
            "type": "image",
            "instructions": "",
            "required": 0,
            "conditional_logic": 0,
            "wrapper": {
                "width": "",
                "class": "",
                "id": ""
            }
        }
    ],
    "location": [
        [
            {
                "param": "taxonomy",
                "operator": "==",
                "value": "floor-types"
            }
        ],
        [
            {
                "param": "taxonomy",
                "operator": "==",
                "value": "floor-categories"
            }
        ],
        [
            {
                "param": "taxonomy",
                "operator": "==",
                "value": "galleries"
            }
        ],
        [
            {
                "param": "taxonomy",
                "operator": "==",
                "value": "category"
            }
        ]
    ],
    "menu_order": 0,
    "position": "normal",
    "style": "default",
    "label_placement": "top",
    "instruction_placement": "label",
    "hide_on_screen": "",
    "active": 1,
    "description": "",
    "modified": 1490205164
}